…
Read and clean the Mr.Trash Wheel sheet

``` r
trash_wheel_df = 
  read_excel("data_hw2/Trash-Wheel-Collection-Totals-7-2020-2.xlsx", 
             sheet = 1, col_names = TRUE, range = "A2:N534") %>% 
  janitor::clean_names() %>%  #clean the variable names
  drop_na(dumpster) %>% #omitting rows without dumpster-specific data
  rename(weight = weight_tons,volume = volume_cubic_yards) %>% #reasonable variable name 
  mutate(sports_balls = round(sports_balls,0)) #round sports_ball to integer

trash_wheel_df
```

    ## # A tibble: 453 × 14
    ##    dumpster month  year date                weight volume plastic_bottles
    ##       <dbl> <chr> <dbl> <dttm>               <dbl>  <dbl>           <dbl>
    ##  1        1 May    2014 2014-05-16 00:00:00   4.31     18            1450
    ##  2        2 May    2014 2014-05-16 00:00:00   2.74     13            1120
    ##  3        3 May    2014 2014-05-16 00:00:00   3.45     15            2450
    ##  4        4 May    2014 2014-05-17 00:00:00   3.1      15            2380
    ##  5        5 May    2014 2014-05-17 00:00:00   4.06     18             980
    ##  6        6 May    2014 2014-05-20 00:00:00   2.71     13            1430
    ##  7        7 May    2014 2014-05-21 00:00:00   1.91      8             910
    ##  8        8 May    2014 2014-05-28 00:00:00   3.7      16            3580
    ##  9        9 June   2014 2014-06-05 00:00:00   2.52     14            2400
    ## 10       10 June   2014 2014-06-11 00:00:00   3.76     18            1340
    ## # … with 443 more rows, and 7 more variables: polystyrene <dbl>,
    ## #   cigarette_butts <dbl>, glass_bottles <dbl>, grocery_bags <dbl>,
    ## #   chip_bags <dbl>, sports_balls <dbl>, homes_powered <dbl>
…
Combine precipitation datasets and convert month to a character variable

``` r
precipitation_both_df = 
  bind_rows(precipitation_2018_df, precipitation_2019_df) %>% 
  mutate(month = month.name[month])

precipitation_both_df
```

    ## # A tibble: 24 × 3
    ##    year  month     total
    ##    <chr> <chr>     <dbl>
    ##  1 2018  January    0.94
    ##  2 2018  February   4.8 
    ##  3 2018  March      2.69
    ##  4 2018  April      4.69
    ##  5 2018  May        9.27
    ##  6 2018  June       4.77
    ##  7 2018  July      10.2 
    ##  8 2018  August     6.45
    ##  9 2018  September 10.5 
    ## 10 2018  October    2.12
    ## # … with 14 more rows
…
``` r
pols_month_df = 
  read_csv("data_hw2/fivethirtyeight_datasets/pols-month.csv") %>% 
  separate("mon",c("year","month","day"),sep = "-") %>% 
  mutate(
    month = month.name[as.numeric(month)],
    president = case_when(prez_gop >= 1 ~ "gop",
                          prez_dem == 1 ~ "dem")
    ) %>% 
  select(-c(day,prez_dem,prez_gop))

pols_month_df
```

    ## # A tibble: 822 × 9
    ##    year  month     gov_gop sen_gop rep_gop gov_dem sen_dem rep_dem president
    ##    <chr> <chr>       <dbl>   <dbl>   <dbl>   <dbl>   <dbl>   <dbl> <chr>    
    ##  1 1947  January        23      51     253      23      45     198 dem      
    ##  2 1947  February       23      51     253      23      45     198 dem      
    ##  3 1947  March          23      51     253      23      45     198 dem      
    ##  4 1947  April          23      51     253      23      45     198 dem      
    ##  5 1947  May            23      51     253      23      45     198 dem      
    ##  6 1947  June           23      51     253      23      45     198 dem      
    ##  7 1947  July           23      51     253      23      45     198 dem      
    ##  8 1947  August         23      51     253      23      45     198 dem      
    ##  9 1947  September      23      51     253      23      45     198 dem      
    ## 10 1947  October        23      51     253      23      45     198 dem      
    ## # … with 812 more rows
…
snp_df
```

    ## # A tibble: 787 × 4
    ##    year  month     day   close
    ##    <chr> <chr>     <chr> <dbl>
    ##  1 1950  January   3      17.0
    ##  2 1950  February  1      17.2
    ##  3 1950  March     1      17.3
    ##  4 1950  April     3      18.0
    ##  5 1950  May       1      18.8
    ##  6 1950  June      1      17.7
    ##  7 1950  July      3      17.8
    ##  8 1950  August    1      18.4
    ##  9 1950  September 1      19.5
    ## 10 1950  October   2      19.5
    ## # … with 777 more rows
…
unemployment_df
```

    ## # A tibble: 816 × 3
    ##    year  month     percentage
    ##    <chr> <chr>          <dbl>
    ##  1 1948  January          3.4
    ##  2 1948  February         3.8
    ##  3 1948  March            4  
    ##  4 1948  April            3.9
    ##  5 1948  May              3.5
    ##  6 1948  June             3.6
    ##  7 1948  July             3.6
    ##  8 1948  August           3.9
    ##  9 1948  September        3.8
    ## 10 1948  October          3.7
    ## # … with 806 more rows

Join the data sets

``` r
combined_df = 
  left_join(pols_month_df, snp_df, by = c("year","month")) %>% 
  left_join(unemployment_df, by = c("year","month"))

combined_df
```

    ## # A tibble: 822 × 12
    ##    year  month   gov_gop sen_gop rep_gop gov_dem sen_dem rep_dem president day  
    ##    <chr> <chr>     <dbl>   <dbl>   <dbl>   <dbl>   <dbl>   <dbl> <chr>     <chr>
    ##  1 1947  January      23      51     253      23      45     198 dem       <NA> 
    ##  2 1947  Februa…      23      51     253      23      45     198 dem       <NA> 
    ##  3 1947  March        23      51     253      23      45     198 dem       <NA> 
    ##  4 1947  April        23      51     253      23      45     198 dem       <NA> 
    ##  5 1947  May          23      51     253      23      45     198 dem       <NA> 
    ##  6 1947  June         23      51     253      23      45     198 dem       <NA> 
    ##  7 1947  July         23      51     253      23      45     198 dem       <NA> 
    ##  8 1947  August       23      51     253      23      45     198 dem       <NA> 
    ##  9 1947  Septem…      23      51     253      23      45     198 dem       <NA> 
    ## 10 1947  October      23      51     253      23      45     198 dem       <NA> 
    ## # … with 812 more rows, and 2 more variables: close <dbl>, percentage <dbl>
…
baby_names_df
```

    ## # A tibble: 12,181 × 6
    ##     year gender ethnicity                  name      count  rank
    ##    <dbl> <chr>  <chr>                      <chr>     <dbl> <dbl>
    ##  1  2016 female asian and pacific islander olivia      172     1
    ##  2  2016 female asian and pacific islander chloe       112     2
    ##  3  2016 female asian and pacific islander sophia      104     3
    ##  4  2016 female asian and pacific islander emily        99     4
    ##  5  2016 female asian and pacific islander emma         99     4
    ##  6  2016 female asian and pacific islander mia          79     5
    ##  7  2016 female asian and pacific islander charlotte    59     6
    ##  8  2016 female asian and pacific islander sarah        57     7
    ##  9  2016 female asian and pacific islander isabella     56     8
    ## 10  2016 female asian and pacific islander hannah       56     8
    ## # … with 12,171 more rows
…
